<?xml version="1.0" encoding="UTF-8" standalone="no"?>
<!-- Created with Inkscape (http://www.inkscape.org/) -->

<svg
   xmlns:dc="http://purl.org/dc/elements/1.1/"
   xmlns:cc="http://creativecommons.org/ns#"
   xmlns:rdf="http://www.w3.org/1999/02/22-rdf-syntax-ns#"
   xmlns:svg="http://www.w3.org/2000/svg"
   xmlns="http://www.w3.org/2000/svg"
   xmlns:xlink="http://www.w3.org/1999/xlink"
   xmlns:sodipodi="http://sodipodi.sourceforge.net/DTD/sodipodi-0.dtd"
   xmlns:inkscape="http://www.inkscape.org/namespaces/inkscape"
   width="128"
   height="128"
   id="svg3138"
   version="1.1"
   inkscape:version="0.48.3.1 r9886"
   sodipodi:docname="icon.svg"
   inkscape:export-filename="/home/dalts/work/local-lookout/utilities/icon.png"
   inkscape:export-xdpi="720"
   inkscape:export-ydpi="720">
  <title
     id="title3248">Local Lookout</title>
  <defs
     id="defs3140" />
  <sodipodi:namedview
     id="base"
     pagecolor="#ffffff"
     bordercolor="#666666"
     borderopacity="1.0"
     inkscape:pageopacity="0.0"
     inkscape:pageshadow="2"
     inkscape:zoom="4.4857086"
     inkscape:cx="59.415154"
     inkscape:cy="69.336432"
     inkscape:current-layer="g2988"
     showgrid="true"
     inkscape:document-units="px"
     inkscape:grid-bbox="true"
     inkscape:window-width="1061"
     inkscape:window-height="768"
     inkscape:window-x="-68"
     inkscape:window-y="201"
     inkscape:window-maximized="0" />
  <metadata
     id="metadata3143">
    <rdf:RDF>
      <cc:Work
         rdf:about="">
        <dc:format>image/svg+xml</dc:format>
        <dc:type
           rdf:resource="http://purl.org/dc/dcmitype/StillImage" />
        <dc:title>Local Lookout</dc:title>
        <dc:date>01/06/2013</dc:date>
        <dc:creator>
          <cc:Agent>
            <dc:title>David Tangye</dc:title>
          </cc:Agent>
        </dc:creator>
        <dc:description>For Open Gov Hack</dc:description>
        <cc:license
           rdf:resource="http://creativecommons.org/licenses/publicdomain/" />
      </cc:Work>
      <cc:License
         rdf:about="http://creativecommons.org/licenses/publicdomain/">
        <cc:permits
           rdf:resource="http://creativecommons.org/ns#Reproduction" />
        <cc:permits
           rdf:resource="http://creativecommons.org/ns#Distribution" />
        <cc:permits
           rdf:resource="http://creativecommons.org/ns#DerivativeWorks" />
      </cc:License>
    </rdf:RDF>
  </metadata>
  <g
     inkscape:groupmode="layer"
     id="layer3"
     inkscape:label="GreyBG"
     style="display:none">
    <rect
       style="fill:#b4afa8;fill-opacity:1"
       id="rect3143"
       width="129"
       height="129.5"
       x="0.054139566"
       y="-0.27706972" />
  </g>
  <g
     style="display:none"
     inkscape:label="WhiteBG"
     id="g3003"
     inkscape:groupmode="layer">
    <rect
       y="-0.27706972"
       x="0.054139566"
       height="129.5"
       width="129"
       id="rect3005"
       style="fill:#b4afa8;fill-opacity:1" />
    <path
       style="fill:#ffffff;fill-opacity:1"
       d="m 0.07113011,64.548926 0,-64.64976311 64.42683289,0 64.426837,0 0,64.64976311 0,64.649764 -64.426837,0 -64.42683289,0 0,-64.649764 z M 121.96041,120.38413 c 0.2217,-0.0713 0.26865,-2.31013 0.22293,-10.62995 l -0.0579,-10.539606 -46.425214,-0.05626 -46.425218,-0.05626 0,-46.368959 0,-46.3689588 -10.70065,0 -10.7006503,0 0,57.1423248 0,57.142329 56.9029373,-0.0872 c 31.296616,-0.0479 57.029315,-0.12781 57.183785,-0.17749 z m -27.645531,-27.968756 25.246851,-1.71e-4 0,-10.700651 0,-10.70065 -30.541443,0 -30.54144,0 0,-30.429975 0,-30.429974 -10.589185,0 -10.589186,0 0,41.278729 0,41.278728 15.883778,-0.147932 c 8.736078,-0.08136 27.244859,-0.14801 41.130625,-0.148104 z m 3.176756,-38.579973 c 7.790745,-1.249687 14.335865,-7.339215 16.411925,-15.269538 0.4922,-1.880118 0.58054,-2.692589 0.58054,-5.338633 0,-2.646043 -0.0883,-3.458515 -0.58054,-5.338632 C 109.95031,12.787634 91.86108,7.304902 80.637426,17.805843 c -3.118502,2.917696 -5.347327,6.84178 -6.226708,10.962783 -0.504817,2.365704 -0.504817,6.551504 0,8.917209 1.501914,7.038343 6.710424,13.008096 13.344399,15.294729 1.013929,0.349488 2.390532,0.726126 3.059118,0.836976 1.711074,0.28369 4.965904,0.292395 6.6774,0.01786 l 0,4e-6 z"
       id="path3007"
       inkscape:connector-curvature="0" />
  </g>
  <g
     id="layer1"
     inkscape:label="PurpleBlue"
     inkscape:groupmode="layer"
     transform="translate(0,64)"
     style="display:none">
    <path
       sodipodi:type="arc"
       style="fill:#0054dc"
       id="path2992"
       sodipodi:cx="38.374245"
       sodipodi:cy="-372.15292"
       sodipodi:rx="15.967807"
       sodipodi:ry="15.967807"
       d="m 54.342052,-372.15292 c 0,8.81877 -7.149031,15.9678 -15.967807,15.9678 -8.818777,0 -15.967807,-7.14903 -15.967807,-15.9678 0,-8.81878 7.14903,-15.96781 15.967807,-15.96781 8.818776,0 15.967807,7.14903 15.967807,15.96781 z"
       transform="matrix(1.2674207,0,0,1.3010963,45.631798,453.43414)" />
    <rect
       style="fill:#640088"
       id="rect2994-4"
       width="82.183083"
       height="21.118711"
       x="-28.490921"
       y="37.323936"
       transform="matrix(0,-1,1,0,0,0)" />
    <rect
       style="fill:#640088"
       id="rect2994-9-4"
       width="114.01309"
       height="21.118711"
       x="-56.5634"
       y="7.9637756"
       transform="matrix(0,-1,1,0,0,0)" />
    <rect
       style="fill:#640088"
       id="rect2994-4-5"
       width="82.183083"
       height="21.118711"
       x="37.304905"
       y="7.1906433" />
    <rect
       style="fill:#640088"
       id="rect2994-9-4-0"
       width="114.01309"
       height="21.118711"
       x="7.993454"
       y="35.190643" />
  </g>
  <g
     transform="translate(0,64)"
     inkscape:groupmode="layer"
     inkscape:label="GreyRed"
     id="g2988"
     style="display:inline">
    <path
       style="fill:#ff0852;fill-opacity:1;stroke:none"
       d="M 87.670578,52.446723 C 70.93123,45.691141 69.983621,22.694746 86.117305,14.75216 c 3.054369,-1.503661 3.720459,-1.638592 8.088966,-1.638592 4.31644,0 5.074912,0.148932 8.130889,1.596566 15.3066,7.250825 15.58971,29.325914 0.47156,36.768558 -2.874623,1.41517 -3.833229,1.623565 -8.052504,1.750563 -3.752139,0.112937 -5.286742,-0.05654 -7.085638,-0.782532 z"
       id="path3074"
       inkscape:connector-curvature="0"
       transform="translate(0,-64)" />
    <rect
       transform="matrix(0,-1,1,0,0,0)"
       y="37.323936"
       x="-28.490921"
       height="21.118711"
       width="82.183083"
       id="rect2992"
       style="fill:#640088" />
    <rect
       transform="matrix(0,-1,1,0,0,0)"
       y="7.9637756"
       x="-56.5634"
       height="21.118711"
       width="114.01309"
       id="rect2994"
       style="fill:#640088" />
    <rect
       y="7.1906433"
       x="37.304905"
       height="21.118711"
       width="82.183083"
       id="rect2996"
       style="fill:#640088" />
    <rect
       y="35.190643"
       x="7.993454"
       height="21.118711"
       width="114.01309"
       id="rect2998"
       style="fill:#640088" />
    <path
       style="fill:#3f3f3f;fill-opacity:1"
       d="m 37.458313,92.363325 c -0.07866,-0.12727 -0.07896,-18.595532 -6.72e-4,-41.04058 l 0.142343,-40.809177 10.335838,0 10.335837,0 0,30.375 0,30.375 30.5,0 30.500001,0 0,10.5 0,10.5 -25.312501,2.2e-4 c -13.921875,1.2e-4 -32.297699,0.07463 -40.835165,0.16558 -9.440352,0.100567 -15.578704,0.07469 -15.665681,-0.06604 l 0,0 z"
       id="path3068"
       inkscape:connector-curvature="0"
       transform="translate(0,-64)" />
    <path
       style="fill:#3f3f3f;fill-opacity:1"
       d="m 8.0216593,63.67958 0,-56.9160122 10.4999997,0 10.5,0 0,46.2500002 0,46.25 46.5,0 46.500001,0 0,10.500002 0,10.5 -41.208778,0 c -22.66483,0 -48.314829,0.0747 -57.000001,0.16601 l -15.7912217,0.16602 0,-56.91602 z"
       id="path3070"
       inkscape:connector-curvature="0"
       transform="translate(0,-64)" />
  </g>
  <g
     inkscape:groupmode="layer"
     id="layer4"
     inkscape:label="gc"
     style="display:none">
    <image
       y="5.5"
       x="3"
       id="image3140"
       xlink:href="data:image/jpeg;base64,/9j/4AAQSkZJRgABAQAAAQABAAD/2wBDAAgGBgcGBQgHBwcJCQgKDBQNDAsLDBkSEw8UHRofHh0a HBwgJC4nICIsIxwcKDcpLDAxNDQ0Hyc5PTgyPC4zNDL/2wBDAQkJCQwLDBgNDRgyIRwhMjIyMjIy MjIyMjIyMjIyMjIyMjIyMjIyMjIyMjIyMjIyMjIyMjIyMjIyMjIyMjIyMjL/wAARCAD6AfQDASIA AhEBAxEB/8QAHwAAAQUBAQEBAQEAAAAAAAAAAAECAwQFBgcICQoL/8QAtRAAAgEDAwIEAwUFBAQA AAF9AQIDAAQRBRIhMUEGE1FhByJxFDKBkaEII0KxwRVS0fAkM2JyggkKFhcYGRolJicoKSo0NTY3 ODk6Q0RFRkdISUpTVFVWV1hZWmNkZWZnaGlqc3R1dnd4eXqDhIWGh4iJipKTlJWWl5iZmqKjpKWm p6ipqrKztLW2t7i5usLDxMXGx8jJytLT1NXW19jZ2uHi4+Tl5ufo6erx8vP09fb3+Pn6/8QAHwEA AwEBAQEBAQEBAQAAAAAAAAECAwQFBgcICQoL/8QAtREAAgECBAQDBAcFBAQAAQJ3AAECAxEEBSEx BhJBUQdhcRMiMoEIFEKRobHBCSMzUvAVYnLRChYkNOEl8RcYGRomJygpKjU2Nzg5OkNERUZHSElK U1RVVldYWVpjZGVmZ2hpanN0dXZ3eHl6goOEhYaHiImKkpOUlZaXmJmaoqOkpaanqKmqsrO0tba3 uLm6wsPExcbHyMnK0tPU1dbX2Nna4uPk5ebn6Onq8vP09fb3+Pn6/9oADAMBAAIRAxEAPwD3+iii gAooooAKKKKACiiigAooooAKKKKACiiigAooooAKKKKACiiigAooooAKKKKACiiigAooooAKKKKA CiiigAooooAKKKKACiiigAooooAKKKKACiiigAooooAKKKKACiiigAooooAKKKKACiiigAooooAK KKKACiiigAooooAKKKKACiiigAooooAKKKKACiiigAooooAKKKKACiiigAooooAKKKKACiiigAoo ooAKKKKACiiigAooooAKKKKACiiigAooooAKKKKACiiigAooooAKKKKACiiigAooooAKKKKACiii gAooooAKKKKACiiigAooooAKKKKACiiigAooooAKKKKACiiigAooooAKKKKACiiigAooooAKKKKA CiiigAooooAKKKKACiiigAooooAKKKKACiiigAooooAKKKKACiiigAooooAKKKKACiiigAooooAK KKKACiiigAooooAKKKKACiiigAooooAKKKKACiiigAooooAKKKKACiiigAooooAKKKKACiiigAoo ooAKKKKACiiigAooooAKKKKACiiigAooooAKKKKACiiigAooooAKKKKACiiigAooooAKKKKACiii gAooooAKKKKACiiigAooooAKKKKACiiigAooooAKKKKACiiigAooooAKKKKACiiigAooooAKKKKA CiiigAooooAKKKKACiiigAooooAKKKKACiiigAooooAKKKKACiiigAooooAKKKKACiiigAooooAK KKKACiiigAooooAKKKM0AFFGaKACiiigAooooAKKKKACiiilcAooopgFFFFABRRRQAUUUUAFFFFA BRRRQAUUUUAFFFFABRRRQAUUUUAFFFFABRmuM8d+OofCVrHFEgn1CcExRk4Cr/eP9B3wa8W1Hx74 m1OQvPrFzEuT+7t38oD8F6/jQB9OZpAc9OlfK6+J9eiYMNb1AMvPF05/rXZeFvixqmn3cdvrjm8s yQGkYYljHTOR94fXn3oA93oqGCaO4gSaJw8TqGRlOQwPeuV8deNoPCNkirGJ9QnB8mLPQd2b2/me KAOwzRmvmTUvHvifVHLTaxcxDOdls5iAH0XGfxqinifX42Vl1vUAwyeLpyP50AfU+7P+elKORXhH hf4sarYXcUGsv9usSQDIV/exjpnP8X4/nXuNtcQ3ltFcW8iyQyqHjdejA8gigCYnFGa8c+JPjLxB ofiw2em6i0Fv9nR9gjQ8nPqDWT4U8e+JtS8V6XZXeqPJbzTqkiGJBkfXbn9aAPeqKB0ooATNGfav Mvit4l1jw9PpY0q+a2E6ymQBFbONuOo9zXnX/CyvGH/QbfHT/Ux//E0AfSeaTPNfNv8Awsvxh31u QfWGIf8AstaOlfFvxNZzKbySHUIsjKSRKhx7FQOfrmgD6CorE8NeJbHxRpKX9kSBnbJE33o29DWw zhQSeABkn0oAdmjPrxXH6n4lnlkZLNvLiB++By1ZJv7wtlrq4znoHNTzIfK2ejUteew6tqFuwKXM hwejncD+ddZo2rrqUJVgFmQfMB0PvTUrhaxrUmecVDcXEdrbvNK2EQZJrjr7xFeXLkQv5MWeAvU/ jQ3YErncZ9qM15v9uvDk/apz/wBtGqza63f2rjFwzqDysnzZ/rS5g5Wd/RWdpepx6nbb1XbIvDpn of8ACtAdKpO4hc+1JmsXxFqEtjaRmB9krv1AzwOtc3/b2pj/AJe24/2R/hUuSQ0md9n2pa5LQ9Zu 7jU0hubgyLIpABAGDye35V1tNMQUmRmobi4jtYHnlOERcmuPvfEV5cuRA/kxZ4C9T+NDlYErnbUZ rzn7fenn7VOT/wBdGqxba3qFswK3DOueVk+bP9aXMPlsd/SZrP0rU01O28xRtdeHX0Ncxd63qUV7 OiXLBVkYAbQcc/Sm5WBI7fNGa4L+39U/5+m/74H+FH9vap/z9N/3yP8AClzDsd7mgGuC/t/VP+fp v++B/hXT6BdT3mnGS4cu/mEZIx6U07iasa9FA6UUxBRRRQAUUUUAFFFFABRRRQAUUUUAFFFFABRR RQAUUUUAFITS0negD5k8dam+r+NNTmZiUSZoE9AqHA/ln8TU3w+0CDxH4tgtLpd9tErTSr2YLjj8 SRXOXMxuLqWZgQZHL9c4yc16P8FYlbxLqEp++toVX8XH+AoA63x94J0ZvCV5c2NhbWlzZxmZJIIg mQPvBsdcjPWvBgPyBz9K+trq3hvLWW2njWSGVSkiN0YHgisX/hBfC3/QDsv+/dAGZ8Lb573wHZB3 3vbs8GT2APA/AECvHfiDqrav421KQvlIJTbxqegCZH5E5P4mvonT9Ns9JtzbafbR28G7dsjGBn/P 8q+Vr24+1X9xcg582VpMn3OaAOg8AaBD4i8XW1pdKXtUVpZUzwQo6fiSK9X8b+B9Gm8KXs1lpttb XVrEZY5LeIIfl5IOOuRmuL+CsO7xVfTf3bIr+br/AIV7RqiCTSb1HGVaBwff5TQB8mcN1wc4OK96 +D2qPe+E5LOVtz2c5RcnPyNyP13V4NXrfwOdhNraZ4KwED/vugDB+MH/ACPR/wCvSP8ArWF4F/5H jRf+vpK3fjB/yPJ/69Y/61heBf8AkeNF/wCvpKAPp4dKKB0ooA8c+OP/AB8aL/uTfzSvIzyfrwa9 c+OP/Hxov+5N/NK8j70Ae6y/B7w9PaK0Fxe28xTIcSAjJHcEdK8b13R59C1q70y5KmW3k27gMbhj KkfUEGvqm3/494v9wfyrwX4wwrH443ADMtpGTge7D+goAPhHq72Pi/7CXPk38RQgn+JQSp+v3h+N ey+JLkwaUyq2GlYJkdhXzv4OnaDxrosiYBN7EhJ/2mwf0Jr3vxccQ2wzjJY/oKT2Gjlse3512Oia TajS4nlt45HlBYl1zXHHqa9F00Y0u0x/zxT+QqIocji9as0s9UkihG1CAwA/hzS6BMYtZgwcCQlS PXP+RXS6noKaldLO1wyYULgLn1/xqvaeGEtbuKcXTMY23YKdf1p2dwurEXiy4KQQ244Dku2PbpXK 4647cVveLGJ1KJc5AhB/U1iRDdMinnLDPvSe41sdxZ6JZRWSRyW0buV+ZmXJz356iuO1G1FnfzwA fKjcfQ9K9GHSuG8SjbrUpxwVXPvxTa0EnqJ4duDDq6Jn5ZQUbP0J/nXdDpXnWmNs1S1Oekq/jzXo mcU4ilucZ4puPM1NYQeIkGR7nn+WKyUgZ7eWcfdi27vxOBT7+f7TqFxNnIZyR9O36Vr6Vaeb4b1B iMlv1281O7K2Ri2sxt7uGYH7kgP4V6OpDKCDkEfnXmXY568813+jT/adJt3zyF2n6jj+lOL1FJaG Z4smKW1vEON7ljjvjH+NcmBkgdzius8WQl7aCYchHKn2zXJ9vTilLccdjubLRbFbCJXtonZkBZmX JJI9e1chqNstpqE8K/cVjtHXitnSvEgghS3u0Zgo2q6c4HuP610Vvc2l4peCSOQHnjk07JoV2ct4 WkZNUZAflePn8OlaM3hWOeeSX7Uy72LYCdM/jW+EUdFA+gqQU1HQnmOC1jS10qaJFlLiQEkkYxWZ nBz2rpPFv/H1bf7jVzZ6H/Papa1NOh1X/CIx/wDP434J/wDXrY0zTxptqYFkLjcWyRir1FWkZ3Ci iimAUUUUAFFFFABRRRQAUUUUAFFFFABRRRQAUUUUAFFFFABSGlpKAPkKvUPgl/yHtT/69R/6EK80 uYDbXU0ByTE7ISRjocV6N8FZtvii+hx/rLItnPTDr/8AFUAM8deMvEWl+NdRsrPVZ4beN0CRoAQu UU+nvmudHxC8WY/5Ddz+IX/CvcNd8IeHr5L7UbzTIZLpomZpmJzwvB6+gr5p/wA8UAfQfws1jUdc 8M3NzqV09zMt60au4GQoRD/MmvnwdK92+C3/ACJt3j/oIP8A+i468T1G3+x6pd2xG0QzPGR1xhsU Aei/BP8A5GDUva1H/oQr2XUP+QXd/wDXF/5GvE/gtKV8WXsJICvYsxHqRIv9Ca9o1aVYNGvpX+4l vIx+gU0AfJ9eq/BDP9pav6eTH+e5q8qPWvXfgfE27W5sELiBR7/f/wDrUAc/8Yf+R5P/AF6x/wBa wvAv/I8aL/19JW98YP8Akef+3SP+tYPgb/kedGP/AE9LQB9PDpRRSZ9qAPHfjj/x8aL/ALk380ry PvXrnxx/4+NF/wByb+aV5H3oA+urf/j2i/3B/KvCfjL/AMjrF/15R/8AoTV7rb/8e0X+6v8AKvn/ AOLV0tx48uEUk+RDHG3pnbu/k1AHN+GAX8V6MgIBa9gA5x/y0X+tfQXi8ZFmew3/AMhXhPge2+0+ ONGjAztukkP/AAE7/wCle8+LVzbWz9g7L+Yz/Sk9ho5SvRtM/wCQVZ/9cE/9BFec16JphB0q0I5/ coP0qYDkWwc9O1Fcp4mvbiC+ijhuJYl8rJCOR1J54+lZljf3z6hbI15OVaRVIMhOfm/+vVcyFYt+ Kj/xNV/64rj8zWRbHF3D6bx/OtrxYmNRhboDEB+RNYUZ2SoTxhgah7lLY9OrifE3/IZb/dWu1HSu G8SMDrcwB5Cr+eKp7Erco2A/4mNrn/nqgH513Wpz/ZtMuJQcMEIU+54H6muJ0xd+q2oHOJVJH410 fiyfZYRQA4Mj5/If44pLYb3OQrutDtwmiQow/wBYpZvfP/1q4Uj8PrWjFruowxpFHcYRAFA2KcAf hSTG0UZYzFM8Z6qSp/Cup8J3GbWeAnPltuH0P/6q5aWVppWldtzuSzY4yTWt4an8rVwmcCVSv49f 6YoW4NXR2Nxbx3Vu8MoyjjBrjdR8PXVoxeBTND1yvUfhXU3+qW2nFBcFhvBxgZ6VVHiTTmYKHfJO B8lU7MlNo4kjaSCuCOoI6U6KV4JBJG5RwchgcV395pdpfKRNEu4j7wGCK4a/tGsb2W2Zt2wjB7kV NrFLU6nQNYe/UwXBBnQZBHG4etbo6VwOhOU1m2IOMnb+ea7/ALVSZLOT8W/8fVt/uNXNnof89q6T xb/x9W3+41c2eh/z2pPctbHqFFFQvKsalnIAHUk4xVozZNRVC01axvy62d3BO0ZwyxyBiv1x0q8D kA4wcUDaadmLRRRQIKKKKACiiigAooooAKKKKACiiigAooooAKKKKACkxyaWigD5k8e6U+k+NNUg IxHJKZ0J4yH+YfgOR9Qab4L8RL4Y8UW+oSoxgw0cwUZYqR2+hwfwr2zxt4Ht/F9rG4kEGoQgiKfb kFeuxvbP5fnnyO5+F3iy3lKJpqTpk4kimQqfzIP50Ad34w+J+h3Hhu7s9IuHubq6iMXETKIwwwSS RzxnpmvE/wCvIru9K+EviS+nC30MVhAD8zyyq5P0CEnP5VueIPhBfz6gh0V7NLRYVQmeRg7OByeF I560Ab/wW/5E68/7CD/+i4683+JWjPpPja9ITEN2xuY/ffnd/wCPZ4+nrXr/AMO/DV94V0G4sdQe F5pLppgYXLDBRB3A5ypq94r8JWPizTPs11ujmjy0E69Y2P8AMHuKAPA/BfiFfDXii11F1ZoMNHKq 9SpHb8cH8K9K8Z/E3Q7zwtd2ekXD3NzdxmL/AFTIEU8NksO4yOPWuR1P4SeJrORhaww30ZJw0UoU 47ZDY5+maop8NPF7uoGjuCT95poxj/x6gDksdcDOP1/+vX0B8JtHfTPBy3Eq4kvpTPz12cBf0Gfx rnPC/wAH5EuorzxBNE0aYItIW3bj/tN/QZ+teupGiIFRQFAwAB0FAHgfxg/5Hn/t0j/rXH6Pqb6P q9rqMSLI9vIsio/AOK9c8ffDzWfE/iU6hYyWaQ+Ssf76RlOR9FNcx/wprxN/z207/v8AP/8AE0AX P+F26v8A9Aqx/N/8aP8AhdurZH/EqssZHRnqn/wprxN/z207/v8AP/8AE0h+DXiXI/f6ccekr/8A xNAGr8a2LtoLHvFKf/QK8oxz9MZxXvPxD8Far4q/sv7A9sn2WN1k86Qr129OD/dNcT/wprxN/wA9 9Ox7TP8A/E0AbU3xrRbQR2uisZgmA0k/APrjbzXlV9ez6jfz31y++aeQySN0BJOf/rV3f/CmvE3/ AD207/v63/xFaek/BS6eRH1bVIkjBy0dqCxPtuOMfkaAKPwd0R7vxHLqzxnyLKNljY8ZkYY/lu/S vXvEVq1zpL7Vy8bCQD1xU+kaRZ6Jp0VhYQrFbxjhR3PqfUmrxQEEHkGhjR5l1PX3yeM11Oj69aQa ekF3IY3iGBleo7UzUfDEhkaSyZdrcmNuMfQ1lnQNVBOLVh9JF5/Ws7NFaMj1e+XUL95gp8vAVc+l T+HrZrjWIjj5Ysuc/wCfXFSW3hm/mb96qwJ3y2f0FdRpumQ6bAI4uWPLse5ppaib0MvxVatJaRXC j/VMd2Bng1yXI474IJr0ySNZYyjgMjDBBHWuVvvCsysWs2V0P8DHBH9KGgTL1n4lsvsSfaZGWZVA ZdpOTXL3t0bu9muCCPMckA84HarZ0HVcn/RW/wC/i/41YtvDF9K374LAh65bc36UtWPRCeGrQz6o JyvywgsT7ngD+tO8U3HmaosQbiKMA/U8/wAsV1FjYQ6fbCGEcZySe5rnbzw9qF1ezT74cSOSMuem eO3pxTs7CurmLY232u9ht8lRIwGRyQOf8K6Y+Erf/n5l/IVHo+g3NlqK3E7RFUU42sTya6Wmo9xN 66HB61pY0uaMRuzq6k88dKpWk32e8hlB5jkB9OK7LXtLl1KCIQlBJGxI3HA5rC/4RW/5w0Hf+M/4 UuXUpNWLvi2MvDazrygLAn6//qrmASrDqCPWvQEsvP0uO1vFVvkCtg+neucuvC13Gx+zOsqehO00 MSaNaHxNYNAryyFJMcptJOa5XULv7ffy3O3Ac8DuAOBVgaDqgH/Ho3v+8X/GrFt4Yv5iPOCQLnJy 2SfypasNEM8OW7S6skmMpECxJ7HGK7gciqen6bBp9t5MQznlierVdxVxVkJ7nJ+Lf+Pq2/3Grmz0 P+e1dlrukXOpTQvAYwFUg72IrI/4RW/PV4MEjoxP9Klp3KurHa15H8VtVuf7Rt9JSRkt/LErAHG8 kkc+wxXrY6c1yHjPwdH4mhjmjkEF5ECqOejD0P4/1qrHdlVejQxcalbb+tTxSzu7mwuoru2laKWM gqwPv/kV9G6VeHUNHsbxhg3ECSkem5Qf615bpXwsv2vUOp3NulsDlliYsX9hwMfWvXIolhhWNBtR RgD0FCTW56Of4zDYhwVF3a3drfIkooopnzoUUUUAFFFFABRRRQAUUUUAFFFFABRRRQAUUUUAFFFF ADcZHNLj3paKAEIoxjpS0UANK5GO1LilooATFLiiigBMUtFFACY/ClxRRQAYpMUtFACY96AKWigA xRiiigAooooATHNA4FLRigBMUo6UYooAKQjNLRigBAMUmKdiigBKXFFFABiiiigAxRiiigAxSYpa MUAGKbjinYooAKKKKADFJilooAKaeh5p1GKAGAcHnIp1GKWgQUUUUDCiiigAooooAKKKKACiiigA ooooAKKKKACiiigAooooAKKKKACiiigAooooAKKKKACiiigAooooAKKKKACiiigAooooAKKKKACi iigAooooAKKKKACiiigAooooAKKKKACiiigAooooAKKKKACiiigAooooAKKKKACiiigAooooAKKK KACiiigAooooAKKKKACiiigAooooAKKKKACiiigAooooAKKKKACiiigAooooAKKKKACiiigAoooo AKKKKACiiigAooooAKKKKACiiigAooooAKKKKACiiigAooooAKKKKACiiigAooooAKKKKACiiigA ooooAKKKKACiiigAooooAKKKKACiiigAooooAKKKKACiiigAooooAKKKKACiiigAooooAKKKKACi iigAooooAKKKKACiiigAooooAKKKKACiiigAooooAKKKKACiiigAooooAKKKKACiiigAooooAKKK KACiiigAooooAKKKKACiiigAooooAKKKKACiiigAooooAKKKKACiiigAooooAKKKKACiiigAoooo AKKKKACiiigAooooAKKKKACiiigAooooAKKKKACiiigAooooAKKKKACiiigAooooAKKKKACiiigA ooooAKKKKACiiigAooooAKKKKACiiigAooooAKKKKACiiigAooooAKKKKACiiigAooooAKKKKACi iigAooooAKKKKACiiigAooooAKKKKACiiigAooooAKKKKACiiigAooooAKKKKACiiigAooooAKKK KACiiigAooooAKKKKACiiigAooooAKKKKACiiigAooooAKKKKACiiigAooooAKKKKACiiigAoooo AKKKKACiiigAooooAKKKKACiiigAooooAKKKKACiiigAooooAKKKKACiiigAooooAKKKKACiiigA ooooAKKKKACiiigAooooAKKKKACiiigAooooAKKKKACiiigAooooAKKKKACiiigAooooAKKKKACi iigAooooAKKKKACiiigAooooAKKKKACiiigAooooA//Z "
       height="118"
       width="120.5" />
  </g>
</svg>
